pom 0.0193702 1 1.38895
pom 0.0387403 1 1.35226
pom 0.0581105 1 1.31682
pom 0.0774806 1 1.27732
pom 0.0968508 1 1.24312
pom 0.116221 1 1.22589
pom 0.135591 1 1.19583
pom 0.154961 1 1.1806
pom 0.174331 1 1.15627
pom 0.193702 1 1.15627
pom 0.213072 1 1.15627
pom 0.232442 1 1.14654
pom 0.251812 1 1.14263
pom 0.271182 1 1.14106
pom 0.290552 1 1.14065
pom 0.309923 1 1.14065
pom 0.329293 1 1.13282
pom 0.348663 1 1.13282
pom 0.368033 1 1.13282
pom 0.387403 1 1.129
pom 0.406773 1 1.12502
pom 0.426144 1 1.12502
pom 0.445514 1 1.12502
pom 0.464884 1 1.10034
pom 0.484254 1 1.10034
pom 0.503624 1 1.09945
pom 0.522994 1 1.09945
pom 0.542364 1 1.09906
pom 0.561735 1 1.09906
pom 0.581105 1 1.09643
pom 0.600475 1 1.09222
pom 0.619845 1 1.08927
pom 0.639215 1 1.08927
pom 0.658585 1 1.0784
pom 0.677956 1 1.07082
pom 0.697326 1 1.07082
pom 0.716696 1 1.06734
pom 0.736066 1 1.06734
pom 0.755436 1 1.06611
pom 0.774806 1 1.05258
pom 0.794177 1 1.05258
pom 0.813547 1 1.05258
pom 0.832917 1 1.05258
pom 0.852287 1 1.05258
pom 0.871657 1 1.05258
pom 0.891027 1 1.04973
pom 0.910398 1 1.04973
pom 0.929768 1 1.04973
pom 0.949138 1 1.04973
pom 0.968508 1 1.04973
pom 0.987878 1 1.04973
pom 1.00725 1 1.04973
pom 1.02662 1 1.04585
pom 1.04599 1 1.04585
pom 1.06536 1 1.04585
pom 1.08473 1 1.04585
pom 1.1041 1 1.04567
pom 1.12347 1 1.04567
pom 1.14284 1 1.04567
pom 1.16221 1 1.04567
pom 1.18158 1 1.04567
pom 1.20095 1 1.04567
pom 1.22032 1 1.04314
pom 1.23969 1 1.04314
pom 1.25906 1 1.04209
pom 1.27843 1 1.04209
pom 1.2978 1 1.04209
pom 1.31717 1 1.04154
pom 1.33654 1 1.04154
pom 1.35591 1 1.04154
pom 1.37528 1 1.04154
pom 1.39465 1 1.04154
pom 1.41402 1 1.04154
pom 1.43339 1 1.04154
pom 1.45276 1 1.03549
pom 1.47213 1 1.03549
pom 1.4915 1 1.03296
pom 1.51087 1 1.03296
pom 1.53024 1 1.03296
pom 1.54961 1 1.03296
pom 1.56898 1 1.03296
pom 1.58835 1 1.03119
pom 1.60772 1 1.03119
pom 1.62709 1 1.03119
pom 1.64646 1 1.03094
pom 1.66583 1 1.03094
pom 1.6852 1 1.03094
pom 1.70457 1 1.03094
pom 1.72394 1 1.03094
pom 1.74331 1 1.03094
pom 1.76268 1 1.03094
pom 1.78205 1 1.03094
pom 1.80142 1 1.03094
pom 1.8208 1 1.03094
pom 1.84017 1 1.03094
pom 1.85954 1 1.03094
pom 1.87891 1 1.02859
pom 1.89828 1 1.02832
pom 1.91765 1 1.02832
pom 1.93702 1 1.02741
pom 1.95639 1 1.02741
pom 1.97576 1 1.02741
pom 1.99513 1 1.02741
pom 2.0145 1 1.02741
pom 2.03387 1 1.02741
pom 2.05324 1 1.02741
pom 2.07261 1 1.02741
pom 2.09198 1 1.02723
pom 2.11135 1 1.02723
pom 2.13072 1 1.02445
pom 2.15009 1 1.02445
pom 2.16946 1 1.02445
pom 2.18883 1 1.02445
pom 2.2082 1 1.02445
pom 2.22757 1 1.02445
pom 2.24694 1 1.02445
pom 2.26631 1 1.02314
pom 2.28568 1 1.02314
pom 2.30505 1 1.02314
pom 2.32442 1 1.02314
pom 2.34379 1 1.02042
pom 2.36316 1 1.02042
pom 2.38253 1 1.01808
pom 2.4019 1 1.01538
pom 2.42127 1 1.01538
pom 2.44064 1 1.01538
pom 2.46001 1 1.01538
pom 2.47938 1 1.01538
pom 2.49875 1 1.01538
pom 2.51812 1 1.01538
pom 2.53749 1 1.01538
pom 2.55686 1 1.01538
pom 2.57623 1 1.01538
pom 2.5956 1 1.01538
pom 2.61497 1 1.01537
pom 2.63434 1 1.01537
pom 2.65371 1 1.01537
pom 2.67308 1 1.0151
pom 2.69245 1 1.0151
pom 2.71182 1 1.0151
pom 2.73119 1 1.01358
pom 2.75056 1 1.01358
pom 2.76993 1 1.01287
pom 2.7893 1 1.00874
pom 2.80867 1 1.00874
pom 2.82804 1 1.00874
pom 2.84741 1 1.00874
pom 2.86678 1 1.00874
pom 2.88615 1 1.00874
pom 2.90552 1 1.00874
pom 2.92489 1 1.00874
pom 2.94426 1 1.00874
pom 2.96363 1 1.00874
pom 2.983 1 1.00874
pom 3.00237 1 0.999514
pom 3.02174 1 0.999514
pom 3.04112 1 0.999514
pom 3.06049 1 0.999514
pom 3.07986 1 0.999514
pom 3.09923 1 0.999514
pom 3.1186 1 0.999506
pom 3.13797 1 0.999506
pom 3.15734 1 0.999506
pom 3.17671 1 0.999506
pom 3.19608 1 0.999506
pom 3.21545 1 0.999506
pom 3.23482 1 0.999506
pom 3.25419 1 0.999506
pom 3.27356 1 0.999506
pom 3.29293 1 0.999506
pom 3.3123 1 0.999506
pom 3.33167 1 0.999506
pom 3.35104 1 0.999506
pom 3.37041 1 0.999413
pom 3.38978 1 0.999413
pom 3.40915 1 0.999413
pom 3.42852 1 0.999413
pom 3.44789 1 0.999413
pom 3.46726 1 0.999413
pom 3.48663 1 0.999413
pom 3.506 1 0.999413
pom 3.52537 1 0.999413
pom 3.54474 1 0.999413
pom 3.56411 1 0.999413
pom 3.58348 1 0.999413
pom 3.60285 1 0.999413
pom 3.62222 1 0.999413
pom 3.64159 1 0.999413
pom 3.66096 1 0.999413
pom 3.68033 1 0.999413
pom 3.6997 1 0.995928
pom 3.71907 1 0.995645
pom 3.73844 1 0.995645
pom 3.75781 1 0.995645
pom 3.77718 1 0.990663
pom 3.79655 1 0.984749
pom 3.81592 1 0.984749
pom 3.83529 1 0.984749
pom 3.85466 1 0.984749
pom 3.87403 1 0.984749
pom 3.8934 1 0.984749
pom 3.91277 1 0.984749
pom 3.93214 1 0.984749
pom 3.95151 1 0.984749
pom 3.97088 1 0.984749
pom 3.99025 1 0.984749
pom 4.00962 1 0.984749
pom 4.02899 1 0.984749
pom 4.04836 1 0.984749
pom 4.06773 1 0.984749
pom 4.0871 1 0.984749
pom 4.10647 1 0.984749
pom 4.12584 1 0.984749
pom 4.14521 1 0.984749
pom 4.16458 1 0.979704
pom 4.18395 1 0.979704
pom 4.20332 1 0.979704
pom 4.22269 1 0.979704
pom 4.24207 1 0.979704
pom 4.26144 1 0.978837
pom 4.28081 1 0.978837
pom 4.30018 1 0.978837
pom 4.31955 1 0.978837
pom 4.33892 1 0.978837
pom 4.35829 1 0.978837
pom 4.37766 1 0.978837
pom 4.39703 1 0.978837
pom 4.4164 1 0.978837
pom 4.43577 1 0.978837
pom 4.45514 1 0.978837
pom 4.47451 1 0.978837
pom 4.49388 1 0.978837
pom 4.51325 1 0.976291
pom 4.53262 1 0.976291
pom 4.55199 1 0.976291
pom 4.57136 1 0.976291
pom 4.59073 1 0.976291
pom 4.6101 1 0.969794
pom 4.62947 1 0.969794
pom 4.64884 1 0.969794
pom 4.66821 1 0.969794
pom 4.68758 1 0.969794
pom 4.70695 1 0.969794
pom 4.72632 1 0.969487
pom 4.74569 1 0.969487
pom 4.76506 1 0.969487
pom 4.78443 1 0.969487
pom 4.8038 1 0.969487
pom 4.82317 1 0.966475
pom 4.84254 1 0.965882
pom 4.86191 1 0.965882
pom 4.88128 1 0.965882
pom 4.90065 1 0.965882
pom 4.92002 1 0.965882
pom 4.93939 1 0.965882
pom 4.95876 1 0.965882
pom 4.97813 1 0.965882
pom 4.9975 1 0.965882
pom 5.01687 1 0.965882
pom 5.03624 1 0.965882
pom 5.05561 1 0.965882
pom 5.07498 1 0.965882
pom 5.09435 1 0.965882
pom 5.11372 1 0.965882
pom 5.13309 1 0.965882
pom 5.15246 1 0.965882
pom 5.17183 1 0.965882
pom 5.1912 1 0.965882
pom 5.21057 1 0.965503
pom 5.22994 1 0.965503
pom 5.24931 1 0.965503
pom 5.26868 1 0.965503
pom 5.28805 1 0.965503
pom 5.30742 1 0.965503
pom 5.32679 1 0.965503
pom 5.34616 1 0.965503
pom 5.36553 1 0.965503
pom 5.3849 1 0.965503
pom 5.40427 1 0.965503
pom 5.42364 1 0.965503
pom 5.44301 1 0.965503
pom 5.46239 1 0.965503
pom 5.48176 1 0.965503
pom 5.50113 1 0.965503
pom 5.5205 1 0.965503
pom 5.53987 1 0.965503
pom 5.55924 1 0.965503
pom 5.57861 1 0.965503
pom 5.59798 1 0.965503
pom 5.61735 1 0.965503
pom 5.63672 1 0.965503
pom 5.65609 1 0.965503
pom 5.67546 1 0.965503
pom 5.69483 1 0.965503
pom 5.7142 1 0.965503
pom 5.73357 1 0.965503
pom 5.75294 1 0.965503
pom 5.77231 1 0.965503
pom 5.79168 1 0.965503
pom 5.81105 1 0.965503
pom 5.83042 1 0.965503
pom 5.84979 1 0.965503
pom 5.86916 1 0.965503
pom 5.88853 1 0.965503
pom 5.9079 1 0.965503
pom 5.92727 1 0.965503
pom 5.94664 1 0.965503
pom 5.96601 1 0.965503
pom 5.98538 1 0.965503
pom 6.00475 1 0.965503
pom 6.02412 1 0.965503
pom 6.04349 1 0.965503
pom 6.06286 1 0.965503
pom 6.08223 1 0.965503
pom 6.1016 1 0.965503
pom 6.12097 1 0.965503
pom 6.14034 1 0.965503
pom 6.15971 1 0.965503
pom 6.17908 1 0.965503
pom 6.19845 1 0.965503
pom 6.21782 1 0.965503
pom 6.23719 1 0.965503
pom 6.25656 1 0.964812
pom 6.27593 1 0.964812
pom 6.2953 1 0.964812
pom 6.31467 1 0.964812
pom 6.33404 1 0.964812
pom 6.35341 1 0.964812
pom 6.37278 1 0.964812
pom 6.39215 1 0.964812
pom 6.41152 1 0.964812
pom 6.43089 1 0.964812
pom 6.45026 1 0.964812
pom 6.46963 1 0.964812
pom 6.489 1 0.964812
pom 6.50837 1 0.964812
pom 6.52774 1 0.964812
pom 6.54711 1 0.964812
pom 6.56648 1 0.964812
pom 6.58585 1 0.964812
pom 6.60522 1 0.964812
pom 6.62459 1 0.964812
pom 6.64396 1 0.964812
pom 6.66333 1 0.964812
pom 6.68271 1 0.964812
pom 6.70208 1 0.964812
pom 6.72145 1 0.964812
pom 6.74082 1 0.964812
pom 6.76019 1 0.961861
pom 6.77956 1 0.961861
pom 6.79893 1 0.961861
pom 6.8183 1 0.961788
pom 6.83767 1 0.961788
pom 6.85704 1 0.961788
pom 6.87641 1 0.961788
pom 6.89578 1 0.961788
pom 6.91515 1 0.961788
pom 6.93452 1 0.961788
pom 6.95389 1 0.960735
pom 6.97326 1 0.960735
pom 6.99263 1 0.960735
pom 7.012 1 0.960735
pom 7.03137 1 0.960735
pom 7.05074 1 0.960735
pom 7.07011 1 0.960735
pom 7.08948 1 0.960735
pom 7.10885 1 0.960735
pom 7.12822 1 0.960735
pom 7.14759 1 0.960735
pom 7.16696 1 0.960735
pom 7.18633 1 0.960735
pom 7.2057 1 0.960735
pom 7.22507 1 0.960735
pom 7.24444 1 0.960735
pom 7.26381 1 0.960735
pom 7.28318 1 0.960735
pom 7.30255 1 0.960735
pom 7.32192 1 0.960735
pom 7.34129 1 0.960735
pom 7.36066 1 0.960735
pom 7.38003 1 0.960735
pom 7.3994 1 0.960735
pom 7.41877 1 0.957551
pom 7.43814 1 0.957551
pom 7.45751 1 0.957551
pom 7.47688 1 0.957551
pom 7.49625 1 0.957551
pom 7.51562 1 0.957551
pom 7.53499 1 0.957551
pom 7.55436 1 0.957551
pom 7.57373 1 0.957551
pom 7.5931 1 0.957551
pom 7.61247 1 0.957551
pom 7.63184 1 0.957551
pom 7.65121 1 0.957551
pom 7.67058 1 0.957551
pom 7.68995 1 0.957551
pom 7.70932 1 0.957078
pom 7.72869 1 0.957078
pom 7.74806 1 0.957078
pom 7.76743 1 0.957078
pom 7.7868 1 0.957078
pom 7.80617 1 0.957078
pom 7.82554 1 0.957078
pom 7.84491 1 0.957078
pom 7.86428 1 0.957078
pom 7.88366 1 0.957078
pom 7.90303 1 0.957078
pom 7.9224 1 0.957078
pom 7.94177 1 0.957078
pom 7.96114 1 0.957078
pom 7.98051 1 0.957078
pom 7.99988 1 0.957078
pom 8.01925 1 0.957078
pom 8.03862 1 0.957078
pom 8.05799 1 0.957078
pom 8.07736 1 0.957078
pom 8.09673 1 0.957078
pom 8.1161 1 0.957078
pom 8.13547 1 0.957078
pom 8.15484 1 0.957078
pom 8.17421 1 0.957078
pom 8.19358 1 0.957078
pom 8.21295 1 0.957078
pom 8.23232 1 0.957078
pom 8.25169 1 0.957078
pom 8.27106 1 0.957078
pom 8.29043 1 0.957078
pom 8.3098 1 0.952914
pom 8.32917 1 0.952914
pom 8.34854 1 0.952914
pom 8.36791 1 0.952914
pom 8.38728 1 0.952914
pom 8.40665 1 0.952914
pom 8.42602 1 0.952317
pom 8.44539 1 0.950389
pom 8.46476 1 0.950389
pom 8.48413 1 0.950389
pom 8.5035 1 0.950389
pom 8.52287 1 0.950389
pom 8.54224 1 0.946293
pom 8.56161 1 0.946293
pom 8.58098 1 0.946293
pom 8.60035 1 0.946293
pom 8.61972 1 0.946293
pom 8.63909 1 0.946293
pom 8.65846 1 0.946293
pom 8.67783 1 0.946293
pom 8.6972 1 0.946293
pom 8.71657 1 0.946293
pom 8.73594 1 0.946293
pom 8.75531 1 0.946293
pom 8.77468 1 0.946293
pom 8.79405 1 0.946293
pom 8.81342 1 0.946293
pom 8.83279 1 0.946293
pom 8.85216 1 0.946293
pom 8.87153 1 0.946293
pom 8.8909 1 0.946293
pom 8.91027 1 0.946293
pom 8.92964 1 0.946293
pom 8.94901 1 0.946293
pom 8.96838 1 0.946293
pom 8.98775 1 0.946293
pom 9.00712 1 0.946293
pom 9.02649 1 0.946293
pom 9.04586 1 0.946293
pom 9.06523 1 0.946293
pom 9.0846 1 0.946293
pom 9.10398 1 0.946293
pom 9.12335 1 0.946293
pom 9.14272 1 0.946293
pom 9.16209 1 0.946293
pom 9.18146 1 0.946293
pom 9.20083 1 0.946293
pom 9.2202 1 0.946293
pom 9.23957 1 0.946293
pom 9.25894 1 0.946293
pom 9.27831 1 0.946293
pom 9.29768 1 0.946293
pom 9.31705 1 0.946293
pom 9.33642 1 0.946293
pom 9.35579 1 0.946293
pom 9.37516 1 0.946293
pom 9.39453 1 0.946293
pom 9.4139 1 0.946293
pom 9.43327 1 0.946293
pom 9.45264 1 0.946293
pom 9.47201 1 0.946293
pom 9.49138 1 0.946293
pom 9.51075 1 0.945471
pom 9.53012 1 0.945471
pom 9.54949 1 0.945471
pom 9.56886 1 0.945471
pom 9.58823 1 0.945471
pom 9.6076 1 0.945471
pom 9.62697 1 0.945471
pom 9.64634 1 0.945471
pom 9.66571 1 0.945471
pom 9.68508 1 0.945471
pom 9.70445 1 0.945471
pom 9.72382 1 0.945471
pom 9.74319 1 0.945471
pom 9.76256 1 0.945471
pom 9.78193 1 0.945471
pom 9.8013 1 0.945471
pom 9.82067 1 0.945471
pom 9.84004 1 0.945471
pom 9.85941 1 0.945471
pom 9.87878 1 0.945471
pom 9.89815 1 0.945471
pom 9.91752 1 0.945471
pom 9.93689 1 0.945471
