easc 0.0193702 1.00061 1.40936
easc 0.0387403 1.00061 1.40936
easc 0.0581105 1.00017 1.36052
easc 0.0774806 1.00017 1.32507
easc 0.0968508 1.00017 1.31563
easc 0.116221 1.00104 1.24449
easc 0.135591 1.00104 1.24449
easc 0.154961 1.00104 1.24449
easc 0.174331 1.00017 1.21806
easc 0.193702 1.00017 1.19978
easc 0.213072 1.00017 1.19978
easc 0.232442 1.00061 1.18638
easc 0.251812 1.00017 1.16058
easc 0.271182 1.00017 1.15378
easc 0.290552 1.00017 1.14815
easc 0.309923 1.00017 1.14815
easc 0.329293 1.00017 1.14646
easc 0.348663 1.00061 1.1421
easc 0.368033 1.00017 1.13429
easc 0.387403 1.00061 1.13405
easc 0.406773 1.00061 1.13405
easc 0.426144 1.00104 1.13278
easc 0.445514 1.00104 1.12885
easc 0.464884 1.00061 1.12667
easc 0.484254 1.00017 1.11171
easc 0.503624 1.00017 1.11171
easc 0.522994 1.00017 1.11171
easc 0.542364 1.00017 1.11171
easc 0.561735 1.00017 1.11171
easc 0.581105 1.00017 1.10932
easc 0.600475 1.00017 1.10932
easc 0.619845 1.00017 1.10852
easc 0.639215 1.00017 1.09723
easc 0.658585 1.00061 1.09479
easc 0.677956 1.00061 1.09479
easc 0.697326 1.00278 1.09464
easc 0.716696 1.00278 1.09464
easc 0.736066 1.00191 1.07092
easc 0.755436 1.00191 1.07092
easc 0.774806 1.00191 1.07092
easc 0.794177 1.00017 1.06753
easc 0.813547 1.00017 1.06753
easc 0.832917 1.00017 1.06753
easc 0.852287 1.00017 1.06753
easc 0.871657 1.00017 1.06753
easc 0.891027 1.00017 1.06753
easc 0.910398 1.00017 1.06753
easc 0.929768 1.00017 1.06753
easc 0.949138 1.00017 1.05805
easc 0.968508 1.00017 1.0529
easc 0.987878 1.00017 1.0529
easc 1.00725 1.00017 1.0529
easc 1.02662 1.00017 1.0529
easc 1.04599 1.00017 1.0529
easc 1.06536 1.00017 1.0529
easc 1.08473 1.00148 1.05258
easc 1.1041 1.00148 1.05258
easc 1.12347 1.00104 1.05156
easc 1.14284 1.00104 1.05156
easc 1.16221 1.00104 1.05156
easc 1.18158 1.00061 1.05149
easc 1.20095 1.00017 1.04567
easc 1.22032 1.00017 1.04567
easc 1.23969 1.00061 1.03282
easc 1.25906 1.00061 1.03282
easc 1.27843 1.00061 1.03282
easc 1.2978 1.00061 1.03282
easc 1.31717 1.00061 1.03282
easc 1.33654 1.00061 1.03282
easc 1.35591 1.00061 1.03282
easc 1.37528 1.00061 1.03282
easc 1.39465 1.00104 1.02733
easc 1.41402 1.00104 1.02733
easc 1.43339 1.00104 1.02733
easc 1.45276 1.00104 1.02733
easc 1.47213 1.00104 1.02733
easc 1.4915 1.00104 1.02733
easc 1.51087 1.00104 1.02733
easc 1.53024 1.00104 1.02733
easc 1.54961 1.00104 1.02733
easc 1.56898 1.00104 1.02733
easc 1.58835 1.00104 1.02733
easc 1.60772 1.00104 1.02733
easc 1.62709 1.00104 1.02733
easc 1.64646 1.00104 1.02733
easc 1.66583 1.00104 1.02733
easc 1.6852 1.00104 1.02733
easc 1.70457 1.00104 1.02358
easc 1.72394 1.00104 1.02358
easc 1.74331 1.00104 1.02358
easc 1.76268 1.00104 1.02358
easc 1.78205 1.00104 1.02358
easc 1.80142 1.00104 1.02358
easc 1.8208 1.00104 1.02358
easc 1.84017 1.00104 1.02358
easc 1.85954 1.00104 1.02358
easc 1.87891 1.00104 1.02358
easc 1.89828 1.00104 1.02358
easc 1.91765 1.00104 1.02358
easc 1.93702 1.00104 1.02358
easc 1.95639 1.00104 1.02358
easc 1.97576 1.00104 1.02358
easc 1.99513 1.00235 1.0187
easc 2.0145 1.00235 1.0187
easc 2.03387 1.00017 1.0131
easc 2.05324 1.00017 1.0131
easc 2.07261 1.00017 1.0131
easc 2.09198 1.00017 1.0131
easc 2.11135 1.00017 1.0131
easc 2.13072 1.00017 1.0131
easc 2.15009 1.00017 1.0131
easc 2.16946 1.00017 1.0131
easc 2.18883 1.00017 1.0131
easc 2.2082 1.00017 1.0131
easc 2.22757 1.00017 1.0131
easc 2.24694 1.00017 1.0131
easc 2.26631 1.00017 1.0131
easc 2.28568 1.00278 1.00889
easc 2.30505 1.00278 1.00889
easc 2.32442 1.00278 1.00889
easc 2.34379 1.00278 1.00889
easc 2.36316 1.00278 1.00889
easc 2.38253 1.00278 1.00889
easc 2.4019 1.00278 1.00889
easc 2.42127 1.00278 1.00889
easc 2.44064 1.00061 1.00875
easc 2.46001 1.00061 1.00326
easc 2.47938 1.00061 1.00326
easc 2.49875 1.00017 1.00298
easc 2.51812 1.00017 1.00298
easc 2.53749 1.00017 1.00298
easc 2.55686 1.00017 1.00298
easc 2.57623 1.00017 1.00298
easc 2.5956 1.00104 1.0013
easc 2.61497 1.00104 1.0013
easc 2.63434 1.00104 1.0013
easc 2.65371 1.00104 1.0013
easc 2.67308 1.00104 1.0013
easc 2.69245 1.00017 1.00076
easc 2.71182 1.00017 1.00067
easc 2.73119 1.00017 1.00067
easc 2.75056 1.00191 0.999636
easc 2.76993 1.00191 0.999636
easc 2.7893 1.00191 0.999636
easc 2.80867 1.00191 0.999636
easc 2.82804 1.00061 0.99904
easc 2.84741 1.00061 0.99904
easc 2.86678 1.00061 0.995856
easc 2.88615 1.00061 0.995856
easc 2.90552 1.00061 0.995856
easc 2.92489 1.00017 0.995281
easc 2.94426 1.00017 0.995281
easc 2.96363 1.00017 0.995281
easc 2.983 1.00017 0.995281
easc 3.00237 1.00017 0.995281
easc 3.02174 1.00235 0.994897
easc 3.04112 1.00235 0.994897
easc 3.06049 1.00017 0.992245
easc 3.07986 1.00017 0.992245
easc 3.09923 1.00017 0.992245
easc 3.1186 1.00017 0.992245
easc 3.13797 1.00017 0.992245
easc 3.15734 1.00017 0.991356
easc 3.17671 1.00017 0.991356
easc 3.19608 1.00017 0.991356
easc 3.21545 1.00017 0.991356
easc 3.23482 1.00017 0.991356
easc 3.25419 1.00017 0.991356
easc 3.27356 1.00017 0.991128
easc 3.29293 1.00017 0.991128
easc 3.3123 1.00017 0.991128
easc 3.33167 1.00235 0.985507
easc 3.35104 1.00235 0.985507
easc 3.37041 1.00235 0.985507
easc 3.38978 1.00104 0.979077
easc 3.40915 1.00104 0.979077
easc 3.42852 1.00017 0.973158
easc 3.44789 1.00017 0.973158
easc 3.46726 1.00017 0.973158
easc 3.48663 1.00017 0.973158
easc 3.506 1.00017 0.973158
easc 3.52537 1.00017 0.973158
easc 3.54474 1.00017 0.973158
easc 3.56411 1.00017 0.973158
easc 3.58348 1.00017 0.973158
easc 3.60285 1.00017 0.973158
easc 3.62222 1.00017 0.973158
easc 3.64159 1.00017 0.973158
easc 3.66096 1.00017 0.973158
easc 3.68033 1.00017 0.973158
easc 3.6997 1.00017 0.973158
easc 3.71907 1.00017 0.973158
easc 3.73844 1.00017 0.973158
easc 3.75781 1.00017 0.973158
easc 3.77718 1.00017 0.973158
easc 3.79655 1.00017 0.973158
easc 3.81592 1.00017 0.973158
easc 3.83529 1.00017 0.973158
easc 3.85466 1.00017 0.973158
easc 3.87403 1.00017 0.973158
easc 3.8934 1.00017 0.973158
easc 3.91277 1.00017 0.973158
easc 3.93214 1.00017 0.973158
easc 3.95151 1.00017 0.973158
easc 3.97088 1.00017 0.973158
easc 3.99025 1.00017 0.973158
easc 4.00962 1.00017 0.973158
easc 4.02899 1.00017 0.973158
easc 4.04836 1.00017 0.973158
easc 4.06773 1.00017 0.973158
easc 4.0871 1.00017 0.973158
easc 4.10647 1.00017 0.973158
easc 4.12584 1.00017 0.973158
easc 4.14521 1.00017 0.973158
easc 4.16458 1.00017 0.973158
easc 4.18395 1.00017 0.973158
easc 4.20332 1.00017 0.973158
easc 4.22269 1.00017 0.973158
easc 4.24207 1.00017 0.973158
easc 4.26144 1.00017 0.973158
easc 4.28081 1.00017 0.973158
easc 4.30018 1.00017 0.973158
easc 4.31955 1.00017 0.973158
easc 4.33892 1.00017 0.973158
easc 4.35829 1.00017 0.973158
easc 4.37766 1.00017 0.973158
easc 4.39703 1.00017 0.970221
easc 4.4164 1.00017 0.970221
easc 4.43577 1.00017 0.970221
easc 4.45514 1.00017 0.970221
easc 4.47451 1.00017 0.970221
easc 4.49388 1.00017 0.970221
easc 4.51325 1.00061 0.970161
easc 4.53262 1.00061 0.970161
easc 4.55199 1.00061 0.970161
easc 4.57136 1.00061 0.970161
easc 4.59073 1.00061 0.970161
easc 4.6101 1.00061 0.970161
easc 4.62947 1.00061 0.970161
easc 4.64884 1.00061 0.970161
easc 4.66821 1.00061 0.970161
easc 4.68758 1.00017 0.970006
easc 4.70695 1.00017 0.970006
easc 4.72632 1.00017 0.970006
easc 4.74569 1.00017 0.970006
easc 4.76506 1.00017 0.970006
easc 4.78443 1.00017 0.970006
easc 4.8038 1.00017 0.970006
easc 4.82317 1.00017 0.970006
easc 4.84254 1.00017 0.970006
easc 4.86191 1.00017 0.970006
easc 4.88128 1.00017 0.970006
easc 4.90065 1.00017 0.970006
easc 4.92002 1.00017 0.970006
easc 4.93939 1.00017 0.970006
easc 4.95876 1.00017 0.970006
easc 4.97813 1.00017 0.970006
easc 4.9975 1.00017 0.962924
easc 5.01687 1.00017 0.962924
easc 5.03624 1.00017 0.962924
easc 5.05561 1.00017 0.962924
easc 5.07498 1.00017 0.962924
easc 5.09435 1.00017 0.962924
easc 5.11372 1.00017 0.962924
easc 5.13309 1.00017 0.962924
easc 5.15246 1.00017 0.962924
easc 5.17183 1.00017 0.962924
easc 5.1912 1.00017 0.962924
easc 5.21057 1.00017 0.962924
easc 5.22994 1.00017 0.962924
easc 5.24931 1.00017 0.962924
easc 5.26868 1.00017 0.962924
easc 5.28805 1.00017 0.962924
easc 5.30742 1.00017 0.962924
easc 5.32679 1.00017 0.962924
easc 5.34616 1.00017 0.962924
easc 5.36553 1.00017 0.962924
easc 5.3849 1.00017 0.962924
easc 5.40427 1.00017 0.962924
easc 5.42364 1.00017 0.962924
easc 5.44301 1.00017 0.962924
easc 5.46239 1.00017 0.962924
easc 5.48176 1.00017 0.962924
easc 5.50113 1.00017 0.962924
easc 5.5205 1.00017 0.962924
easc 5.53987 1.00017 0.962924
easc 5.55924 1.00017 0.962924
easc 5.57861 1.00017 0.962924
easc 5.59798 1.00017 0.962924
easc 5.61735 1.00017 0.962924
easc 5.63672 1.00017 0.962924
easc 5.65609 1.00017 0.962924
easc 5.67546 1.00017 0.962924
easc 5.69483 1.00017 0.962924
easc 5.7142 1.00017 0.962924
easc 5.73357 1.00017 0.962924
easc 5.75294 1.00017 0.962924
easc 5.77231 1.00017 0.962924
easc 5.79168 1.00017 0.962924
easc 5.81105 1.00017 0.962924
easc 5.83042 1.00017 0.962924
easc 5.84979 1.00017 0.962924
easc 5.86916 1.00017 0.962924
easc 5.88853 1.00017 0.962924
easc 5.9079 1.00017 0.962924
easc 5.92727 1.00017 0.962924
easc 5.94664 1.00017 0.962924
easc 5.96601 1.00017 0.962924
easc 5.98538 1.00017 0.962924
easc 6.00475 1.00017 0.962924
easc 6.02412 1.00017 0.962924
easc 6.04349 1.00017 0.962924
easc 6.06286 1.00017 0.962924
easc 6.08223 1.00017 0.96143
easc 6.1016 1.00017 0.96143
easc 6.12097 1.00017 0.96143
easc 6.14034 1.00017 0.96143
easc 6.15971 1.00017 0.96143
easc 6.17908 1.00017 0.96143
easc 6.19845 1.00017 0.96143
easc 6.21782 1.00017 0.96143
easc 6.23719 1.00017 0.96143
easc 6.25656 1.00017 0.96143
easc 6.27593 1.00017 0.96143
easc 6.2953 1.00017 0.96143
easc 6.31467 1.00017 0.96143
easc 6.33404 1.00017 0.96143
easc 6.35341 1.00017 0.96143
easc 6.37278 1.00017 0.96143
easc 6.39215 1.00017 0.96143
easc 6.41152 1.00017 0.96143
easc 6.43089 1.00017 0.96143
easc 6.45026 1.00017 0.96143
easc 6.46963 1.00017 0.96143
easc 6.489 1.00017 0.96143
easc 6.50837 1.00017 0.96143
easc 6.52774 1.00017 0.96143
easc 6.54711 1.00061 0.955039
easc 6.56648 1.00061 0.955039
easc 6.58585 1.00061 0.955039
easc 6.60522 1.00061 0.955039
easc 6.62459 1.00061 0.955039
easc 6.64396 1.00061 0.955039
easc 6.66333 1.00061 0.955039
easc 6.68271 1.00061 0.955039
easc 6.70208 1.00017 0.9538
easc 6.72145 1.00017 0.9538
easc 6.74082 1.00017 0.9538
easc 6.76019 1.00017 0.9538
easc 6.77956 1.00017 0.9538
easc 6.79893 1.00017 0.9538
easc 6.8183 1.00017 0.9538
easc 6.83767 1.00017 0.9538
easc 6.85704 1.00017 0.9538
easc 6.87641 1.00017 0.9538
easc 6.89578 1.00017 0.9538
easc 6.91515 1.00017 0.9538
easc 6.93452 1.00017 0.9538
easc 6.95389 1.00017 0.9538
easc 6.97326 1.00017 0.9538
easc 6.99263 1.00017 0.9538
easc 7.012 1.00017 0.9538
easc 7.03137 1.00017 0.9538
easc 7.05074 1.00017 0.9538
easc 7.07011 1.00017 0.9538
easc 7.08948 1.00017 0.9538
easc 7.10885 1.00017 0.9538
easc 7.12822 1.00017 0.9538
easc 7.14759 1.00017 0.9538
easc 7.16696 1.00017 0.9538
easc 7.18633 1.00017 0.9538
easc 7.2057 1.00017 0.9538
easc 7.22507 1.00017 0.9538
easc 7.24444 1.00017 0.9538
easc 7.26381 1.00017 0.9538
easc 7.28318 1.00017 0.9538
easc 7.30255 1.00017 0.9538
easc 7.32192 1.00017 0.9538
easc 7.34129 1.00017 0.9538
easc 7.36066 1.00017 0.9538
easc 7.38003 1.00017 0.9538
easc 7.3994 1.00017 0.9538
easc 7.41877 1.00017 0.952094
easc 7.43814 1.00017 0.952094
easc 7.45751 1.00017 0.952094
easc 7.47688 1.00017 0.952094
easc 7.49625 1.00017 0.952094
easc 7.51562 1.00017 0.952094
easc 7.53499 1.00017 0.952094
easc 7.55436 1.00017 0.952094
easc 7.57373 1.00017 0.952094
easc 7.5931 1.00017 0.952094
easc 7.61247 1.00017 0.952094
easc 7.63184 1.00017 0.952094
easc 7.65121 1.00017 0.952094
easc 7.67058 1.00017 0.952094
easc 7.68995 1.00017 0.952094
easc 7.70932 1.00017 0.952094
easc 7.72869 1.00017 0.952094
easc 7.74806 1.00017 0.952094
easc 7.76743 1.00017 0.952094
easc 7.7868 1.00017 0.952094
easc 7.80617 1.00017 0.952094
easc 7.82554 1.00017 0.952094
easc 7.84491 1.00017 0.952094
easc 7.86428 1.00017 0.952094
easc 7.88366 1.00017 0.952094
easc 7.90303 1.00017 0.952094
easc 7.9224 1.00017 0.952094
easc 7.94177 1.00017 0.952094
easc 7.96114 1.00017 0.952094
easc 7.98051 1.00017 0.952094
easc 7.99988 1.00061 0.948517
easc 8.01925 1.00061 0.948517
easc 8.03862 1.00061 0.948517
easc 8.05799 1.00061 0.948517
easc 8.07736 1.00061 0.948517
easc 8.09673 1.00061 0.948517
easc 8.1161 1.00061 0.948517
easc 8.13547 1.00061 0.948517
easc 8.15484 1.00061 0.948517
easc 8.17421 1.00061 0.948517
easc 8.19358 1.00061 0.948517
easc 8.21295 1.00061 0.948517
easc 8.23232 1.00017 0.942303
easc 8.25169 1.00017 0.942303
easc 8.27106 1.00017 0.942303
easc 8.29043 1.00017 0.942303
easc 8.3098 1.00017 0.942303
easc 8.32917 1.00017 0.942303
easc 8.34854 1.00017 0.942303
easc 8.36791 1.00017 0.942303
easc 8.38728 1.00017 0.942303
easc 8.40665 1.00017 0.942303
easc 8.42602 1.00017 0.942303
easc 8.44539 1.00017 0.942303
easc 8.46476 1.00017 0.942303
easc 8.48413 1.00017 0.942303
easc 8.5035 1.00017 0.942303
easc 8.52287 1.00017 0.942303
easc 8.54224 1.00017 0.942303
easc 8.56161 1.00017 0.942303
easc 8.58098 1.00017 0.942303
easc 8.60035 1.00017 0.942303
easc 8.61972 1.00017 0.942303
easc 8.63909 1.00017 0.942303
easc 8.65846 1.00017 0.942303
easc 8.67783 1.00017 0.942303
easc 8.6972 1.00017 0.942303
easc 8.71657 1.00017 0.942303
easc 8.73594 1.00017 0.942303
easc 8.75531 1.00017 0.942303
easc 8.77468 1.00017 0.942303
easc 8.79405 1.00017 0.942303
easc 8.81342 1.00017 0.942303
easc 8.83279 1.00017 0.942303
easc 8.85216 1.00017 0.942303
easc 8.87153 1.00017 0.942303
easc 8.8909 1.00017 0.942303
easc 8.91027 1.00017 0.942303
easc 8.92964 1.00017 0.942303
easc 8.94901 1.00017 0.942303
easc 8.96838 1.00017 0.942303
easc 8.98775 1.00017 0.942303
easc 9.00712 1.00017 0.942303
easc 9.02649 1.00017 0.942303
easc 9.04586 1.00017 0.942303
easc 9.06523 1.00017 0.942303
easc 9.0846 1.00017 0.942303
easc 9.10398 1.00017 0.942303
easc 9.12335 1.00017 0.942303
easc 9.14272 1.00017 0.942303
easc 9.16209 1.00017 0.942303
easc 9.18146 1.00017 0.942303
easc 9.20083 1.00017 0.942303
easc 9.2202 1.00017 0.942303
easc 9.23957 1.00017 0.942303
easc 9.25894 1.00017 0.942303
easc 9.27831 1.00017 0.942303
easc 9.29768 1.00017 0.942303
easc 9.31705 1.00017 0.942303
easc 9.33642 1.00017 0.942303
easc 9.35579 1.00017 0.942303
easc 9.37516 1.00017 0.942303
easc 9.39453 1.00017 0.942303
easc 9.4139 1.00017 0.942303
easc 9.43327 1.00017 0.942303
easc 9.45264 1.00017 0.942303
easc 9.47201 1.00017 0.942303
easc 9.49138 1.00017 0.942303
easc 9.51075 1.00017 0.942303
easc 9.53012 1.00017 0.942303
easc 9.54949 1.00017 0.942303
easc 9.56886 1.00017 0.942303
easc 9.58823 1.00017 0.942303
easc 9.6076 1.00017 0.942303
easc 9.62697 1.00017 0.942303
easc 9.64634 1.00017 0.942303
easc 9.66571 1.00017 0.942303
easc 9.68508 1.00017 0.942303
easc 9.70445 1.00017 0.942303
easc 9.72382 1.00017 0.942303
easc 9.74319 1.00017 0.942303
easc 9.76256 1.00017 0.942303
easc 9.78193 1.00017 0.942303
easc 9.8013 1.00017 0.942303
easc 9.82067 1.00017 0.942303
easc 9.84004 1.00017 0.942303
easc 9.85941 1.00017 0.942303
easc 9.87878 1.00017 0.942303
easc 9.89815 1.00017 0.942303
easc 9.91752 1.00017 0.941487
easc 9.93689 1.00017 0.941487
easc 9.95626 1.00017 0.941487
easc 9.97563 1.00017 0.941487
easc 9.995 1.00104 0.937059
easc 10.0144 1.00104 0.937059
