easc 0.0495172 1.00033 1.50778
easc 0.0990344 1.00033 1.41207
easc 0.148552 1.00102 1.39914
easc 0.198069 1.00102 1.33543
easc 0.247586 1.00102 1.33543
easc 0.297103 1.00102 1.33543
easc 0.34662 1.00102 1.33543
easc 0.396138 1.01208 1.33208
easc 0.445655 1.00171 1.31503
easc 0.495172 1.0024 1.30013
easc 0.544689 1.0024 1.28548
easc 0.594206 1.0024 1.26488
easc 0.643724 1.00379 1.25524
easc 0.693241 1.0024 1.20305
easc 0.742758 1.0024 1.20305
easc 0.792275 1.0024 1.20305
easc 0.841793 1.00102 1.20228
easc 0.89131 1.00033 1.18819
easc 0.940827 1.0031 1.16211
easc 0.990344 1.00102 1.14729
easc 1.03986 1.0031 1.13343
easc 1.08938 1.0031 1.13343
easc 1.1389 1.0031 1.13343
easc 1.18841 1.0024 1.12791
easc 1.23793 1.0024 1.12791
easc 1.28745 1.0024 1.12791
easc 1.33696 1.0024 1.12791
easc 1.38648 1.00033 1.12088
easc 1.436 1.00033 1.12088
easc 1.48552 1.00033 1.12088
easc 1.53503 1.00033 1.12088
easc 1.58455 1.00033 1.12088
easc 1.63407 1.00517 1.11306
easc 1.68359 1.00517 1.11306
easc 1.7331 1.00033 1.11061
easc 1.78262 1.00033 1.10567
easc 1.83214 1.00033 1.10567
easc 1.88165 1.00033 1.10567
easc 1.93117 1.00033 1.10567
easc 1.98069 1.00171 1.10558
easc 2.03021 1.00171 1.10302
easc 2.07972 1.00171 1.10302
easc 2.12924 1.00171 1.10302
easc 2.17876 1.00171 1.10302
easc 2.22827 1.00171 1.10302
easc 2.27779 1.00102 1.1021
easc 2.32731 1.00033 1.09741
easc 2.37683 1.00033 1.09741
easc 2.42634 1.00033 1.09741
easc 2.47586 1.0031 1.09231
easc 2.52538 1.00033 1.08817
easc 2.57489 1.00033 1.08817
easc 2.62441 1.00033 1.08817
easc 2.67393 1.00033 1.08817
easc 2.72345 1.00102 1.05686
easc 2.77296 1.00102 1.05686
easc 2.82248 1.00102 1.05686
easc 2.872 1.00033 1.05458
easc 2.92152 1.00033 1.05458
easc 2.97103 1.00033 1.05458
easc 3.02055 1.00033 1.05458
easc 3.07007 1.00033 1.05458
easc 3.11958 1.00033 1.05458
easc 3.1691 1.00033 1.05458
easc 3.21862 1.00033 1.05458
easc 3.26814 1.00102 1.04815
easc 3.31765 1.00102 1.04815
easc 3.36717 1.00102 1.04815
easc 3.41669 1.00102 1.04815
easc 3.4662 1.00102 1.04815
easc 3.51572 1.00102 1.04815
easc 3.56524 1.00102 1.04815
easc 3.61476 1.00171 1.04444
easc 3.66427 1.00171 1.04444
easc 3.71379 1.00171 1.04444
easc 3.76331 1.00171 1.04441
easc 3.81282 1.00171 1.0429
easc 3.86234 1.00171 1.0429
easc 3.91186 1.00033 1.03886
easc 3.96138 1.00033 1.03886
easc 4.01089 1.00171 1.03668
easc 4.06041 1.00171 1.03668
easc 4.10993 1.00171 1.03668
easc 4.15945 1.00171 1.0335
easc 4.20896 1.00171 1.0335
easc 4.25848 1.00171 1.0335
easc 4.308 1.00171 1.0335
easc 4.35751 1.00171 1.0335
easc 4.40703 1.00171 1.0335
easc 4.45655 1.00171 1.0335
easc 4.50607 1.00033 1.03062
easc 4.55558 1.00033 1.03062
easc 4.6051 1.00033 1.03062
easc 4.65462 1.00171 1.02939
easc 4.70413 1.00171 1.02939
easc 4.75365 1.00171 1.02939
easc 4.80317 1.00171 1.02803
easc 4.85269 1.00102 1.02645
easc 4.9022 1.00102 1.02645
easc 4.95172 1.00102 1.0231
easc 5.00124 1.00102 1.0231
easc 5.05076 1.00033 1.02047
easc 5.10027 1.00033 1.02047
easc 5.14979 1.00033 1.02047
easc 5.19931 1.0024 1.02
easc 5.24882 1.00171 1.01485
easc 5.29834 1.00171 1.01485
easc 5.34786 1.00171 1.01485
easc 5.39738 1.00171 1.01485
easc 5.44689 1.00033 1.00718
easc 5.49641 1.00033 1.00718
easc 5.54593 1.00033 1.00718
easc 5.59544 1.00033 1.00718
easc 5.64496 1.00033 1.00718
easc 5.69448 1.00033 1.00718
easc 5.744 1.00102 1.00307
easc 5.79351 1.00102 1.00307
easc 5.84303 1.00102 1.00307
easc 5.89255 1.00102 1.00307
easc 5.94206 1.00102 1.00307
easc 5.99158 1.00033 1.0025
easc 6.0411 1.00033 1.0025
easc 6.09062 1.00033 0.999046
easc 6.14013 1.00033 0.999046
easc 6.18965 1.00033 0.999046
easc 6.23917 1.00033 0.999046
easc 6.28869 1.00033 0.999046
easc 6.3382 1.00033 0.999046
easc 6.38772 1.00033 0.98892
easc 6.43724 1.00033 0.98892
easc 6.48675 1.00033 0.98892
easc 6.53627 1.00033 0.98892
easc 6.58579 1.00033 0.98892
easc 6.63531 1.00033 0.983023
easc 6.68482 1.00171 0.979258
easc 6.73434 1.00171 0.979258
easc 6.78386 1.00171 0.979258
easc 6.83337 1.00171 0.979258
easc 6.88289 1.00171 0.979258
easc 6.93241 1.00171 0.979258
easc 6.98193 1.00379 0.975406
easc 7.03144 1.00102 0.969456
easc 7.08096 1.00102 0.969456
easc 7.13048 1.00102 0.969456
easc 7.18 1.00102 0.969456
easc 7.22951 1.00102 0.969456
easc 7.27903 1.00102 0.969456
easc 7.32855 1.00102 0.969456
easc 7.37806 1.00102 0.969456
easc 7.42758 1.00102 0.969456
easc 7.4771 1.00102 0.969456
easc 7.52662 1.00102 0.969456
easc 7.57613 1.00102 0.969456
easc 7.62565 1.00102 0.969456
easc 7.67517 1.00102 0.969456
easc 7.72468 1.00102 0.969456
easc 7.7742 1.00102 0.969456
easc 7.82372 1.00102 0.969456
easc 7.87324 1.00102 0.969456
easc 7.92275 1.00102 0.969456
easc 7.97227 1.00033 0.962842
easc 8.02179 1.00033 0.962842
easc 8.0713 1.00033 0.962842
easc 8.12082 1.00033 0.962842
easc 8.17034 1.00033 0.962842
easc 8.21986 1.00033 0.962842
easc 8.26937 1.00102 0.962024
easc 8.31889 1.00102 0.962024
easc 8.36841 1.00102 0.962024
easc 8.41793 1.00102 0.962024
easc 8.46744 1.00102 0.962024
easc 8.51696 1.00102 0.962024
easc 8.56648 1.00102 0.962024
easc 8.61599 1.00102 0.962024
easc 8.66551 1.00102 0.962024
easc 8.71503 1.00102 0.962024
easc 8.76455 1.00102 0.962024
easc 8.81406 1.00102 0.962024
easc 8.86358 1.00102 0.962024
easc 8.9131 1.00102 0.961199
easc 8.96261 1.00102 0.961199
easc 9.01213 1.00102 0.961199
easc 9.06165 1.00171 0.95808
easc 9.11117 1.00171 0.95808
easc 9.16068 1.00171 0.95808
easc 9.2102 1.00171 0.95808
easc 9.25972 1.0024 0.957892
easc 9.30923 1.00033 0.950014
easc 9.35875 1.00033 0.950014
easc 9.40827 1.00033 0.950014
easc 9.45779 1.00033 0.950014
easc 9.5073 1.00033 0.950014
easc 9.55682 1.00033 0.950014
easc 9.60634 1.00033 0.950014
easc 9.65586 1.00033 0.950014
easc 9.70537 1.00033 0.950014
easc 9.75489 1.00033 0.950014
easc 9.80441 1.00171 0.949594
easc 9.85392 1.00171 0.949594
easc 9.90344 1.00033 0.943181
easc 9.95296 1.00033 0.943181
easc 10.0025 1.00033 0.943181
easc 10.052 1.00033 0.943181
easc 10.1015 1.00033 0.943181
easc 10.151 1.00033 0.943181
easc 10.2005 1.00102 0.94008
easc 10.2501 1.00102 0.94008
easc 10.2996 1.00102 0.94008
easc 10.3491 1.00102 0.94008
easc 10.3986 1.00102 0.94008
easc 10.4481 1.00102 0.94008
easc 10.4976 1.00102 0.94008
easc 10.5472 1.00102 0.94008
easc 10.5967 1.00102 0.94008
easc 10.6462 1.00102 0.933394
easc 10.6957 1.00102 0.933394
easc 10.7452 1.00102 0.933394
easc 10.7948 1.00102 0.933394
easc 10.8443 1.00102 0.933394
easc 10.8938 1.00102 0.933394
easc 10.9433 1.00102 0.933394
easc 10.9928 1.00102 0.933394
easc 11.0423 1.00102 0.933394
easc 11.0919 1.00102 0.933394
easc 11.1414 1.00102 0.933394
easc 11.1909 1.00102 0.933394
easc 11.2404 1.00102 0.933394
easc 11.2899 1.00102 0.933394
easc 11.3394 1.00102 0.933394
easc 11.389 1.00102 0.933394
easc 11.4385 1.00033 0.932626
easc 11.488 1.00033 0.932626
easc 11.5375 1.00033 0.932626
easc 11.587 1.00033 0.932626
easc 11.6365 1.00033 0.932626
easc 11.6861 1.00033 0.932626
easc 11.7356 1.00033 0.932626
easc 11.7851 1.00033 0.932626
easc 11.8346 1.00033 0.932626
easc 11.8841 1.00033 0.932626
easc 11.9336 1.00033 0.932626
easc 11.9832 1.00033 0.932626
easc 12.0327 1.00033 0.932626
easc 12.0822 1.00033 0.932626
easc 12.1317 1.00033 0.932626
easc 12.1812 1.00033 0.932626
easc 12.2308 1.00033 0.932626
easc 12.2803 1.00033 0.932626
easc 12.3298 1.0024 0.932453
easc 12.3793 1.00102 0.932313
easc 12.4288 1.00102 0.932313
easc 12.4783 1.00102 0.932313
easc 12.5279 1.00102 0.932313
easc 12.5774 1.00102 0.932313
easc 12.6269 1.00102 0.932313
easc 12.6764 1.00102 0.932313
easc 12.7259 1.00033 0.925197
easc 12.7754 1.00033 0.925197
easc 12.825 1.00033 0.925197
easc 12.8745 1.00033 0.922404
easc 12.924 1.00033 0.922404
easc 12.9735 1.00033 0.922404
easc 13.023 1.00033 0.922404
easc 13.0725 1.00033 0.922404
easc 13.1221 1.00033 0.922404
easc 13.1716 1.00033 0.922404
easc 13.2211 1.00033 0.922404
easc 13.2706 1.00033 0.922404
easc 13.3201 1.00033 0.922404
easc 13.3696 1.00033 0.922404
easc 13.4192 1.00033 0.922404
easc 13.4687 1.00033 0.922404
easc 13.5182 1.00033 0.922404
easc 13.5677 1.00033 0.922404
easc 13.6172 1.00033 0.922404
easc 13.6667 1.00033 0.922404
easc 13.7163 1.00033 0.922404
easc 13.7658 1.00033 0.922404
easc 13.8153 1.00033 0.922404
easc 13.8648 1.00033 0.922404
easc 13.9143 1.00033 0.922404
easc 13.9639 1.00033 0.918862
easc 14.0134 1.00033 0.918862
easc 14.0629 1.00033 0.918862
easc 14.1124 1.00033 0.918862
easc 14.1619 1.00033 0.918862
easc 14.2114 1.00033 0.918862
easc 14.261 1.00033 0.918862
easc 14.3105 1.00033 0.918862
easc 14.36 1.00033 0.918862
easc 14.4095 1.00033 0.918862
easc 14.459 1.00033 0.918862
easc 14.5085 1.00033 0.918862
easc 14.5581 1.00033 0.918862
easc 14.6076 1.00033 0.918862
easc 14.6571 1.00033 0.918862
easc 14.7066 1.00033 0.918862
easc 14.7561 1.00033 0.918862
easc 14.8056 1.00033 0.918862
easc 14.8552 1.00033 0.918862
easc 14.9047 1.00033 0.918862
easc 14.9542 1.00033 0.918862
easc 15.0037 1.00033 0.918862
easc 15.0532 1.00033 0.918862
easc 15.1027 1.00033 0.918862
easc 15.1523 1.00033 0.918862
easc 15.2018 1.00033 0.918862
easc 15.2513 1.00033 0.918862
easc 15.3008 1.00033 0.918862
easc 15.3503 1.00033 0.918862
easc 15.3999 1.00033 0.918862
easc 15.4494 1.00033 0.918862
easc 15.4989 1.00033 0.918862
easc 15.5484 1.00033 0.918862
easc 15.5979 1.00033 0.918862
easc 15.6474 1.00033 0.918862
easc 15.697 1.00033 0.918862
easc 15.7465 1.00033 0.918862
easc 15.796 1.00033 0.918862
easc 15.8455 1.00033 0.918862
easc 15.895 1.00033 0.918862
easc 15.9445 1.00033 0.918167
easc 15.9941 1.00033 0.918167
easc 16.0436 1.00033 0.918167
easc 16.0931 1.00033 0.918167
easc 16.1426 1.00033 0.918167
easc 16.1921 1.00033 0.918167
easc 16.2416 1.00033 0.918167
easc 16.2912 1.00033 0.918167
easc 16.3407 1.00033 0.918167
easc 16.3902 1.00033 0.918167
easc 16.4397 1.00033 0.918167
easc 16.4892 1.00033 0.917704
easc 16.5387 1.00033 0.917704
easc 16.5883 1.00033 0.917704
easc 16.6378 1.00033 0.917704
easc 16.6873 1.00033 0.917704
easc 16.7368 1.00033 0.917704
easc 16.7863 1.00033 0.917704
easc 16.8359 1.00033 0.917704
easc 16.8854 1.00033 0.917704
easc 16.9349 1.00033 0.917704
easc 16.9844 1.00033 0.917084
easc 17.0339 1.00033 0.917084
easc 17.0834 1.00033 0.916886
easc 17.133 1.00033 0.916886
easc 17.1825 1.00033 0.916886
easc 17.232 1.00033 0.916886
easc 17.2815 1.00033 0.916886
easc 17.331 1.00033 0.916886
easc 17.3805 1.00033 0.916886
easc 17.4301 1.00033 0.916886
easc 17.4796 1.00033 0.915961
easc 17.5291 1.00033 0.915961
easc 17.5786 1.00033 0.915961
easc 17.6281 1.00033 0.915961
easc 17.6776 1.00033 0.915961
easc 17.7272 1.00033 0.915961
easc 17.7767 1.00033 0.915961
easc 17.8262 1.00033 0.915961
easc 17.8757 1.00033 0.915961
easc 17.9252 1.00033 0.915961
easc 17.9747 1.00033 0.915961
easc 18.0243 1.00033 0.915961
easc 18.0738 1.00033 0.914407
easc 18.1233 1.00033 0.914407
easc 18.1728 1.00033 0.914407
easc 18.2223 1.00033 0.914407
easc 18.2718 1.00033 0.914407
easc 18.3214 1.00033 0.914407
easc 18.3709 1.00171 0.913771
easc 18.4204 1.00171 0.913771
easc 18.4699 1.00171 0.913771
easc 18.5194 1.00171 0.913771
easc 18.569 1.00171 0.913771
easc 18.6185 1.00171 0.913771
easc 18.668 1.00171 0.913771
easc 18.7175 1.00171 0.913771
easc 18.767 1.00171 0.913771
easc 18.8165 1.00171 0.913771
easc 18.8661 1.00171 0.913771
easc 18.9156 1.00171 0.913771
easc 18.9651 1.00171 0.913771
easc 19.0146 1.00171 0.913771
easc 19.0641 1.00171 0.913771
easc 19.1136 1.00171 0.913771
easc 19.1632 1.00171 0.913771
easc 19.2127 1.00171 0.913771
easc 19.2622 1.00171 0.913771
easc 19.3117 1.00171 0.913771
easc 19.3612 1.00171 0.913771
easc 19.4107 1.00171 0.913771
easc 19.4603 1.00171 0.913771
easc 19.5098 1.00102 0.913518
easc 19.5593 1.00102 0.913518
easc 19.6088 1.00102 0.913518
easc 19.6583 1.00102 0.913518
easc 19.7078 1.00102 0.913518
easc 19.7574 1.00102 0.913518
easc 19.8069 1.00102 0.913518
easc 19.8564 1.00102 0.913518
easc 19.9059 1.00102 0.913518
easc 19.9554 1.00102 0.913518
easc 20.005 1.00102 0.913518
easc 20.0545 1.00033 0.912172
easc 20.104 1.00033 0.910408
easc 20.1535 1.00033 0.910408
easc 20.203 1.00033 0.910408
easc 20.2525 1.00033 0.910408
easc 20.3021 1.00033 0.910408
easc 20.3516 1.00033 0.910042
easc 20.4011 1.00033 0.910042
easc 20.4506 1.00033 0.910042
easc 20.5001 1.00033 0.910042
easc 20.5496 1.00033 0.910042
easc 20.5992 1.00033 0.910042
easc 20.6487 1.00033 0.910042
easc 20.6982 1.00033 0.910042
easc 20.7477 1.00033 0.910042
easc 20.7972 1.00033 0.910042
easc 20.8467 1.00033 0.910042
easc 20.8963 1.00033 0.910042
easc 20.9458 1.00033 0.910042
easc 20.9953 1.00033 0.910042
easc 21.0448 1.00033 0.910042
easc 21.0943 1.00033 0.910042
easc 21.1438 1.00033 0.910042
easc 21.1934 1.00033 0.910042
easc 21.2429 1.00033 0.910042
easc 21.2924 1.00033 0.910042
easc 21.3419 1.00033 0.910042
easc 21.3914 1.00033 0.910042
easc 21.441 1.00033 0.910042
easc 21.4905 1.00033 0.910042
easc 21.54 1.00033 0.910042
easc 21.5895 1.00033 0.910042
easc 21.639 1.00033 0.910042
easc 21.6885 1.00033 0.910042
easc 21.7381 1.00033 0.910042
easc 21.7876 1.00033 0.910042
easc 21.8371 1.00033 0.910042
easc 21.8866 1.00033 0.910042
easc 21.9361 1.00033 0.910042
easc 21.9856 1.00033 0.910042
easc 22.0352 1.00033 0.910042
easc 22.0847 1.00033 0.910042
easc 22.1342 1.00033 0.910042
easc 22.1837 1.00033 0.910042
easc 22.2332 1.00033 0.910042
easc 22.2827 1.00033 0.910042
easc 22.3323 1.00033 0.910042
easc 22.3818 1.00033 0.910042
easc 22.4313 1.00033 0.910042
easc 22.4808 1.00033 0.910042
easc 22.5303 1.00033 0.910042
easc 22.5798 1.00033 0.908343
easc 22.6294 1.00033 0.908343
easc 22.6789 1.00033 0.908343
easc 22.7284 1.00033 0.908343
easc 22.7779 1.00033 0.908343
easc 22.8274 1.00033 0.908343
easc 22.8769 1.00033 0.908343
easc 22.9265 1.00033 0.908343
easc 22.976 1.00033 0.908343
easc 23.0255 1.00033 0.908343
easc 23.075 1.00033 0.908343
easc 23.1245 1.00033 0.908343
easc 23.1741 1.00033 0.908343
easc 23.2236 1.00033 0.908343
easc 23.2731 1.00033 0.908343
easc 23.3226 1.00033 0.908343
easc 23.3721 1.00033 0.908343
easc 23.4216 1.00033 0.908343
easc 23.4712 1.00033 0.908343
easc 23.5207 1.00033 0.908343
easc 23.5702 1.00033 0.908343
easc 23.6197 1.00033 0.908343
easc 23.6692 1.00033 0.908343
easc 23.7187 1.00033 0.908343
easc 23.7683 1.00033 0.908343
easc 23.8178 1.00033 0.908343
easc 23.8673 1.00033 0.908343
easc 23.9168 1.00033 0.908343
easc 23.9663 1.00033 0.908343
easc 24.0158 1.00171 0.90783
easc 24.0654 1.00171 0.90783
easc 24.1149 1.00171 0.90783
easc 24.1644 1.00171 0.90783
easc 24.2139 1.00171 0.90783
easc 24.2634 1.00171 0.90783
easc 24.3129 1.00171 0.90783
easc 24.3625 1.00171 0.90783
easc 24.412 1.00171 0.90783
easc 24.4615 1.00171 0.90783
easc 24.511 1.00171 0.90783
easc 24.5605 1.00171 0.90783
easc 24.6101 1.00033 0.906777
easc 24.6596 1.00033 0.906777
easc 24.7091 1.00033 0.906777
easc 24.7586 1.00033 0.906777
easc 24.8081 1.00033 0.906777
easc 24.8576 1.00033 0.906777
easc 24.9072 1.00033 0.906777
easc 24.9567 1.00033 0.906777
easc 25.0062 1.00033 0.906777
easc 25.0557 1.00033 0.906777
easc 25.1052 1.00033 0.905896
easc 25.1547 1.00033 0.905896
easc 25.2043 1.00033 0.905896
easc 25.2538 1.00033 0.905896
easc 25.3033 1.00033 0.905896
easc 25.3528 1.00033 0.905896
easc 25.4023 1.00033 0.905896
easc 25.4518 1.00033 0.905896
easc 25.5014 1.00033 0.905896
easc 25.5509 1.00033 0.905896
easc 25.6004 1.00033 0.905896
easc 25.6499 1.00033 0.905896
easc 25.6994 1.00033 0.905896
easc 25.7489 1.00102 0.905078
easc 25.7985 1.00102 0.905078
easc 25.848 1.00102 0.905078
easc 25.8975 1.00102 0.905078
easc 25.947 1.00102 0.905078
easc 25.9965 1.00102 0.905078
easc 26.0461 1.00102 0.905078
easc 26.0956 1.00102 0.905078
easc 26.1451 1.00102 0.905078
easc 26.1946 1.00102 0.905078
easc 26.2441 1.00102 0.905078
easc 26.2936 1.00102 0.905078
easc 26.3432 1.00102 0.905078
easc 26.3927 1.00102 0.905078
easc 26.4422 1.00102 0.905078
easc 26.4917 1.00102 0.905078
easc 26.5412 1.00102 0.905078
easc 26.5907 1.00102 0.905078
easc 26.6403 1.00102 0.905078
easc 26.6898 1.00102 0.905078
easc 26.7393 1.00102 0.905078
easc 26.7888 1.00102 0.905078
easc 26.8383 1.00102 0.905078
easc 26.8878 1.00102 0.905078
easc 26.9374 1.00102 0.905078
easc 26.9869 1.00102 0.905078
easc 27.0364 1.00102 0.905078
easc 27.0859 1.00102 0.905078
easc 27.1354 1.00102 0.905078
easc 27.1849 1.00102 0.905078
easc 27.2345 1.00102 0.905078
easc 27.284 1.00102 0.905078
easc 27.3335 1.00102 0.905078
easc 27.383 1.00102 0.905078
easc 27.4325 1.00102 0.905078
easc 27.4821 1.00102 0.905078
easc 27.5316 1.00102 0.905078
easc 27.5811 1.00102 0.905078
easc 27.6306 1.00102 0.905078
easc 27.6801 1.00102 0.905078
easc 27.7296 1.00102 0.905078
easc 27.7792 1.00102 0.905078
easc 27.8287 1.00102 0.905078
easc 27.8782 1.00102 0.905078
easc 27.9277 1.00102 0.905078
easc 27.9772 1.00102 0.905078
easc 28.0267 1.00102 0.905078
easc 28.0763 1.00102 0.905078
easc 28.1258 1.00102 0.905078
easc 28.1753 1.00102 0.905078
easc 28.2248 1.00102 0.905078
easc 28.2743 1.00102 0.905078
easc 28.3238 1.00102 0.905078
easc 28.3734 1.00102 0.905078
easc 28.4229 1.00102 0.905078
easc 28.4724 1.00102 0.905078
easc 28.5219 1.00033 0.904591
easc 28.5714 1.00033 0.904591
easc 28.6209 1.00033 0.904591
easc 28.6705 1.00033 0.903847
easc 28.72 1.00033 0.903847
easc 28.7695 1.00033 0.903847
easc 28.819 1.00033 0.903847
easc 28.8685 1.00033 0.903847
easc 28.918 1.00033 0.903847
easc 28.9676 1.00033 0.903847
easc 29.0171 1.00033 0.903847
easc 29.0666 1.00033 0.903847
easc 29.1161 1.00033 0.903847
easc 29.1656 1.00033 0.903847
easc 29.2152 1.00033 0.903847
easc 29.2647 1.00033 0.903847
easc 29.3142 1.00033 0.903847
easc 29.3637 1.00033 0.903847
easc 29.4132 1.00033 0.903847
easc 29.4627 1.00033 0.903847
easc 29.5123 1.00033 0.903847
easc 29.5618 1.00033 0.903847
easc 29.6113 1.00033 0.903847
easc 29.6608 1.00033 0.903847
easc 29.7103 1.00033 0.903847
easc 29.7598 1.00033 0.903847
easc 29.8094 1.00033 0.903847
easc 29.8589 1.00033 0.902121
easc 29.9084 1.00033 0.902121
easc 29.9579 1.00033 0.902121
easc 30.0074 1.00033 0.902121
easc 30.0569 1.00033 0.902121
easc 30.1065 1.00033 0.902121
easc 30.156 1.00033 0.902121
easc 30.2055 1.00033 0.902121
easc 30.255 1.00033 0.902121
easc 30.3045 1.00033 0.902121
easc 30.354 1.00033 0.902121
easc 30.4036 1.00033 0.902121
easc 30.4531 1.00033 0.902121
easc 30.5026 1.00033 0.902121
easc 30.5521 1.00033 0.902121
easc 30.6016 1.00033 0.902121
easc 30.6512 1.00033 0.902121
easc 30.7007 1.00033 0.902121
easc 30.7502 1.00033 0.902121
easc 30.7997 1.00033 0.902121
easc 30.8492 1.00033 0.902121
easc 30.8987 1.00033 0.902121
easc 30.9483 1.00033 0.902121
easc 30.9978 1.00033 0.902121
