pom 0.0495172 1 1.42012
pom 0.0990344 1 1.3059
pom 0.148552 1 1.26623
pom 0.198069 1 1.26623
pom 0.247586 1 1.24565
pom 0.297103 1 1.24081
pom 0.34662 1 1.16388
pom 0.396138 1 1.16388
pom 0.445655 1 1.16388
pom 0.495172 1 1.16203
pom 0.544689 1 1.14634
pom 0.594206 1 1.12973
pom 0.643724 1 1.12368
pom 0.693241 1 1.10139
pom 0.742758 1 1.07997
pom 0.792275 1 1.07997
pom 0.841793 1 1.07997
pom 0.89131 1 1.07997
pom 0.940827 1 1.07997
pom 0.990344 1 1.07997
pom 1.03986 1 1.0787
pom 1.08938 1 1.05258
pom 1.1389 1 1.05258
pom 1.18841 1 1.05258
pom 1.23793 1 1.05258
pom 1.28745 1 1.05258
pom 1.33696 1 1.05258
pom 1.38648 1 1.05064
pom 1.436 1 1.05064
pom 1.48552 1 1.05064
pom 1.53503 1 1.05064
pom 1.58455 1 1.04539
pom 1.63407 1 1.04539
pom 1.68359 1 1.039
pom 1.7331 1 1.039
pom 1.78262 1 1.039
pom 1.83214 1 1.039
pom 1.88165 1 1.039
pom 1.93117 1 1.039
pom 1.98069 1 1.039
pom 2.03021 1 1.03372
pom 2.07972 1 1.03372
pom 2.12924 1 1.03372
pom 2.17876 1 1.03372
pom 2.22827 1 1.03372
pom 2.27779 1 1.03343
pom 2.32731 1 1.03343
pom 2.37683 1 1.0223
pom 2.42634 1 1.0223
pom 2.47586 1 1.0223
pom 2.52538 1 1.0223
pom 2.57489 1 1.0223
pom 2.62441 1 1.0223
pom 2.67393 1 1.0223
pom 2.72345 1 1.0223
pom 2.77296 1 1.01894
pom 2.82248 1 1.01894
pom 2.872 1 1.01894
pom 2.92152 1 1.01452
pom 2.97103 1 1.01452
pom 3.02055 1 1.01452
pom 3.07007 1 1.01452
pom 3.11958 1 1.01452
pom 3.1691 1 0.995434
pom 3.21862 1 0.995434
pom 3.26814 1 0.995434
pom 3.31765 1 0.995434
pom 3.36717 1 0.995434
pom 3.41669 1 0.995434
pom 3.4662 1 0.995434
pom 3.51572 1 0.995434
pom 3.56524 1 0.986088
pom 3.61476 1 0.986088
pom 3.66427 1 0.986088
pom 3.71379 1 0.986088
pom 3.76331 1 0.986088
pom 3.81282 1 0.986088
pom 3.86234 1 0.986088
pom 3.91186 1 0.986088
pom 3.96138 1 0.986088
pom 4.01089 1 0.986088
pom 4.06041 1 0.986088
pom 4.10993 1 0.986088
pom 4.15945 1 0.986088
pom 4.20896 1 0.982629
pom 4.25848 1 0.982629
pom 4.308 1 0.982629
pom 4.35751 1 0.982629
pom 4.40703 1 0.982629
pom 4.45655 1 0.982629
pom 4.50607 1 0.982629
pom 4.55558 1 0.982629
pom 4.6051 1 0.982629
pom 4.65462 1 0.974392
pom 4.70413 1 0.974392
pom 4.75365 1 0.974392
pom 4.80317 1 0.973851
pom 4.85269 1 0.973851
pom 4.9022 1 0.973851
pom 4.95172 1 0.973851
pom 5.00124 1 0.973851
pom 5.05076 1 0.967672
pom 5.10027 1 0.967672
pom 5.14979 1 0.967672
pom 5.19931 1 0.967672
pom 5.24882 1 0.967672
pom 5.29834 1 0.966599
pom 5.34786 1 0.966599
pom 5.39738 1 0.966599
pom 5.44689 1 0.966599
pom 5.49641 1 0.963948
pom 5.54593 1 0.963948
pom 5.59544 1 0.963948
pom 5.64496 1 0.963948
pom 5.69448 1 0.963948
pom 5.744 1 0.963948
pom 5.79351 1 0.961878
pom 5.84303 1 0.958935
pom 5.89255 1 0.958935
pom 5.94206 1 0.958935
pom 5.99158 1 0.958935
pom 6.0411 1 0.958935
pom 6.09062 1 0.958935
pom 6.14013 1 0.958935
pom 6.18965 1 0.958935
pom 6.23917 1 0.958935
pom 6.28869 1 0.958935
pom 6.3382 1 0.957103
pom 6.38772 1 0.957103
pom 6.43724 1 0.952584
pom 6.48675 1 0.952584
pom 6.53627 1 0.952584
pom 6.58579 1 0.952584
pom 6.63531 1 0.947865
pom 6.68482 1 0.947865
pom 6.73434 1 0.947865
pom 6.78386 1 0.947865
pom 6.83337 1 0.94572
pom 6.88289 1 0.94572
pom 6.93241 1 0.941382
pom 6.98193 1 0.941382
pom 7.03144 1 0.941382
pom 7.08096 1 0.941382
pom 7.13048 1 0.937925
pom 7.18 1 0.937925
pom 7.22951 1 0.937925
pom 7.27903 1 0.937925
pom 7.32855 1 0.937925
pom 7.37806 1 0.937925
pom 7.42758 1 0.937925
pom 7.4771 1 0.937925
pom 7.52662 1 0.935622
pom 7.57613 1 0.935622
pom 7.62565 1 0.931805
pom 7.67517 1 0.931805
pom 7.72468 1 0.931805
pom 7.7742 1 0.931805
pom 7.82372 1 0.931805
pom 7.87324 1 0.931805
pom 7.92275 1 0.931805
pom 7.97227 1 0.931805
pom 8.02179 1 0.931805
pom 8.0713 1 0.931805
pom 8.12082 1 0.931805
pom 8.17034 1 0.931805
pom 8.21986 1 0.931805
pom 8.26937 1 0.931805
pom 8.31889 1 0.931805
pom 8.36841 1 0.931805
pom 8.41793 1 0.929984
pom 8.46744 1 0.929984
pom 8.51696 1 0.929984
pom 8.56648 1 0.929984
pom 8.61599 1 0.929984
pom 8.66551 1 0.929984
pom 8.71503 1 0.929984
pom 8.76455 1 0.929984
pom 8.81406 1 0.929984
pom 8.86358 1 0.929984
pom 8.9131 1 0.92932
pom 8.96261 1 0.92932
pom 9.01213 1 0.92932
pom 9.06165 1 0.92932
pom 9.11117 1 0.92932
pom 9.16068 1 0.92932
pom 9.2102 1 0.92932
pom 9.25972 1 0.92932
pom 9.30923 1 0.92932
pom 9.35875 1 0.92932
pom 9.40827 1 0.92932
pom 9.45779 1 0.92932
pom 9.5073 1 0.92932
pom 9.55682 1 0.92932
pom 9.60634 1 0.92932
pom 9.65586 1 0.92932
pom 9.70537 1 0.92932
pom 9.75489 1 0.92932
pom 9.80441 1 0.92932
pom 9.85392 1 0.92932
pom 9.90344 1 0.92932
pom 9.95296 1 0.92932
pom 10.0025 1 0.92932
pom 10.052 1 0.92932
pom 10.1015 1 0.92932
pom 10.151 1 0.92932
pom 10.2005 1 0.92932
pom 10.2501 1 0.928031
pom 10.2996 1 0.928031
pom 10.3491 1 0.928031
pom 10.3986 1 0.928031
pom 10.4481 1 0.928031
pom 10.4976 1 0.926875
pom 10.5472 1 0.926875
pom 10.5967 1 0.926875
pom 10.6462 1 0.926875
pom 10.6957 1 0.926875
pom 10.7452 1 0.926875
pom 10.7948 1 0.926875
pom 10.8443 1 0.926412
pom 10.8938 1 0.926412
pom 10.9433 1 0.926412
pom 10.9928 1 0.926412
pom 11.0423 1 0.923209
pom 11.0919 1 0.923209
pom 11.1414 1 0.923209
pom 11.1909 1 0.923209
pom 11.2404 1 0.923209
pom 11.2899 1 0.923077
pom 11.3394 1 0.923077
pom 11.389 1 0.923077
pom 11.4385 1 0.923077
pom 11.488 1 0.923077
pom 11.5375 1 0.923077
pom 11.587 1 0.923077
pom 11.6365 1 0.923077
pom 11.6861 1 0.923077
pom 11.7356 1 0.923077
pom 11.7851 1 0.923077
pom 11.8346 1 0.923077
pom 11.8841 1 0.923077
pom 11.9336 1 0.923077
pom 11.9832 1 0.923077
pom 12.0327 1 0.923077
pom 12.0822 1 0.923077
pom 12.1317 1 0.923077
pom 12.1812 1 0.923077
pom 12.2308 1 0.923077
pom 12.2803 1 0.923077
pom 12.3298 1 0.923077
pom 12.3793 1 0.923077
pom 12.4288 1 0.923077
pom 12.4783 1 0.920888
pom 12.5279 1 0.920888
pom 12.5774 1 0.920888
pom 12.6269 1 0.920888
pom 12.6764 1 0.920888
pom 12.7259 1 0.920888
pom 12.7754 1 0.920888
pom 12.825 1 0.920888
pom 12.8745 1 0.920888
pom 12.924 1 0.920888
pom 12.9735 1 0.920888
pom 13.023 1 0.920888
pom 13.0725 1 0.920888
pom 13.1221 1 0.920888
pom 13.1716 1 0.920888
pom 13.2211 1 0.920888
pom 13.2706 1 0.919778
pom 13.3201 1 0.919778
pom 13.3696 1 0.919778
pom 13.4192 1 0.919778
pom 13.4687 1 0.919778
pom 13.5182 1 0.919778
pom 13.5677 1 0.919778
pom 13.6172 1 0.919778
pom 13.6667 1 0.918732
pom 13.7163 1 0.918732
pom 13.7658 1 0.918732
pom 13.8153 1 0.918732
pom 13.8648 1 0.918732
pom 13.9143 1 0.918732
pom 13.9639 1 0.918732
pom 14.0134 1 0.918732
pom 14.0629 1 0.918732
pom 14.1124 1 0.918732
pom 14.1619 1 0.918732
pom 14.2114 1 0.918732
pom 14.261 1 0.918732
pom 14.3105 1 0.918732
pom 14.36 1 0.918732
pom 14.4095 1 0.918732
pom 14.459 1 0.918732
pom 14.5085 1 0.918732
pom 14.5581 1 0.918732
pom 14.6076 1 0.918732
pom 14.6571 1 0.918732
pom 14.7066 1 0.918732
pom 14.7561 1 0.918732
pom 14.8056 1 0.918732
pom 14.8552 1 0.916893
pom 14.9047 1 0.916893
pom 14.9542 1 0.916893
pom 15.0037 1 0.916893
pom 15.0532 1 0.916893
pom 15.1027 1 0.916893
pom 15.1523 1 0.916893
pom 15.2018 1 0.916893
pom 15.2513 1 0.916893
pom 15.3008 1 0.916893
pom 15.3503 1 0.916893
pom 15.3999 1 0.916893
pom 15.4494 1 0.916893
pom 15.4989 1 0.916893
pom 15.5484 1 0.916893
pom 15.5979 1 0.916893
pom 15.6474 1 0.916893
pom 15.697 1 0.916893
pom 15.7465 1 0.916893
pom 15.796 1 0.916893
pom 15.8455 1 0.916893
pom 15.895 1 0.916893
pom 15.9445 1 0.916893
pom 15.9941 1 0.916893
pom 16.0436 1 0.916893
pom 16.0931 1 0.916893
pom 16.1426 1 0.916893
pom 16.1921 1 0.916893
pom 16.2416 1 0.916893
pom 16.2912 1 0.916893
pom 16.3407 1 0.916893
pom 16.3902 1 0.916893
pom 16.4397 1 0.916893
pom 16.4892 1 0.916893
pom 16.5387 1 0.916893
pom 16.5883 1 0.916893
pom 16.6378 1 0.916893
pom 16.6873 1 0.916893
pom 16.7368 1 0.916893
pom 16.7863 1 0.916893
pom 16.8359 1 0.916893
pom 16.8854 1 0.916893
pom 16.9349 1 0.916893
pom 16.9844 1 0.916893
pom 17.0339 1 0.916893
pom 17.0834 1 0.916893
pom 17.133 1 0.916893
pom 17.1825 1 0.916893
pom 17.232 1 0.916893
pom 17.2815 1 0.916893
pom 17.331 1 0.916893
pom 17.3805 1 0.916893
pom 17.4301 1 0.916893
pom 17.4796 1 0.916893
pom 17.5291 1 0.916893
pom 17.5786 1 0.916893
pom 17.6281 1 0.916893
pom 17.6776 1 0.916893
pom 17.7272 1 0.916893
pom 17.7767 1 0.916893
pom 17.8262 1 0.916893
pom 17.8757 1 0.916893
pom 17.9252 1 0.916893
pom 17.9747 1 0.916893
pom 18.0243 1 0.916893
pom 18.0738 1 0.916893
pom 18.1233 1 0.916893
pom 18.1728 1 0.916893
pom 18.2223 1 0.916893
pom 18.2718 1 0.916893
pom 18.3214 1 0.916893
pom 18.3709 1 0.916893
pom 18.4204 1 0.916893
pom 18.4699 1 0.916312
pom 18.5194 1 0.916312
pom 18.569 1 0.916312
pom 18.6185 1 0.916312
pom 18.668 1 0.916312
pom 18.7175 1 0.914641
pom 18.767 1 0.914641
pom 18.8165 1 0.914641
pom 18.8661 1 0.914641
pom 18.9156 1 0.914641
pom 18.9651 1 0.914641
pom 19.0146 1 0.914641
pom 19.0641 1 0.914641
pom 19.1136 1 0.914641
pom 19.1632 1 0.914641
pom 19.2127 1 0.914641
pom 19.2622 1 0.914641
pom 19.3117 1 0.914641
pom 19.3612 1 0.914641
pom 19.4107 1 0.914641
pom 19.4603 1 0.914641
pom 19.5098 1 0.914641
pom 19.5593 1 0.914641
pom 19.6088 1 0.914641
pom 19.6583 1 0.914641
pom 19.7078 1 0.914641
pom 19.7574 1 0.914641
pom 19.8069 1 0.914641
pom 19.8564 1 0.907601
pom 19.9059 1 0.907601
pom 19.9554 1 0.907601
pom 20.005 1 0.907601
pom 20.0545 1 0.907601
pom 20.104 1 0.907601
pom 20.1535 1 0.907601
pom 20.203 1 0.907601
pom 20.2525 1 0.907601
pom 20.3021 1 0.907601
pom 20.3516 1 0.907601
pom 20.4011 1 0.907601
pom 20.4506 1 0.907601
pom 20.5001 1 0.907601
pom 20.5496 1 0.907601
pom 20.5992 1 0.907601
pom 20.6487 1 0.907601
pom 20.6982 1 0.907601
pom 20.7477 1 0.907601
pom 20.7972 1 0.907601
pom 20.8467 1 0.907601
pom 20.8963 1 0.907601
pom 20.9458 1 0.907601
pom 20.9953 1 0.907601
pom 21.0448 1 0.907601
pom 21.0943 1 0.907601
pom 21.1438 1 0.907601
pom 21.1934 1 0.907601
pom 21.2429 1 0.907601
pom 21.2924 1 0.907601
pom 21.3419 1 0.907601
pom 21.3914 1 0.907601
pom 21.441 1 0.907601
pom 21.4905 1 0.907601
pom 21.54 1 0.907601
pom 21.5895 1 0.907601
pom 21.639 1 0.907601
pom 21.6885 1 0.907601
pom 21.7381 1 0.907601
pom 21.7876 1 0.907601
pom 21.8371 1 0.907601
pom 21.8866 1 0.907601
pom 21.9361 1 0.907601
pom 21.9856 1 0.907012
pom 22.0352 1 0.907012
pom 22.0847 1 0.907012
pom 22.1342 1 0.907012
pom 22.1837 1 0.907012
pom 22.2332 1 0.907012
pom 22.2827 1 0.907012
pom 22.3323 1 0.907012
pom 22.3818 1 0.905493
pom 22.4313 1 0.905493
pom 22.4808 1 0.905493
pom 22.5303 1 0.905493
pom 22.5798 1 0.905493
pom 22.6294 1 0.905493
pom 22.6789 1 0.905493
pom 22.7284 1 0.905493
pom 22.7779 1 0.905493
pom 22.8274 1 0.905493
pom 22.8769 1 0.905493
pom 22.9265 1 0.905493
pom 22.976 1 0.905493
pom 23.0255 1 0.905493
pom 23.075 1 0.905493
pom 23.1245 1 0.905493
pom 23.1741 1 0.905493
pom 23.2236 1 0.905493
pom 23.2731 1 0.905493
pom 23.3226 1 0.905493
pom 23.3721 1 0.904211
pom 23.4216 1 0.904211
pom 23.4712 1 0.904211
pom 23.5207 1 0.904211
pom 23.5702 1 0.904211
pom 23.6197 1 0.904211
pom 23.6692 1 0.904211
pom 23.7187 1 0.904211
pom 23.7683 1 0.904211
pom 23.8178 1 0.904211
pom 23.8673 1 0.904211
pom 23.9168 1 0.904211
pom 23.9663 1 0.904211
pom 24.0158 1 0.904211
pom 24.0654 1 0.904211
pom 24.1149 1 0.904211
pom 24.1644 1 0.904211
pom 24.2139 1 0.904211
pom 24.2634 1 0.904211
pom 24.3129 1 0.904211
pom 24.3625 1 0.904211
pom 24.412 1 0.904211
pom 24.4615 1 0.904211
pom 24.511 1 0.904211
pom 24.5605 1 0.904211
pom 24.6101 1 0.904211
pom 24.6596 1 0.904211
pom 24.7091 1 0.904211
pom 24.7586 1 0.904211
pom 24.8081 1 0.904211
pom 24.8576 1 0.904211
pom 24.9072 1 0.904211
pom 24.9567 1 0.904211
pom 25.0062 1 0.904211
pom 25.0557 1 0.904211
pom 25.1052 1 0.904211
pom 25.1547 1 0.904211
pom 25.2043 1 0.904211
pom 25.2538 1 0.904211
pom 25.3033 1 0.904211
pom 25.3528 1 0.904211
pom 25.4023 1 0.904211
pom 25.4518 1 0.904211
pom 25.5014 1 0.904211
pom 25.5509 1 0.904211
pom 25.6004 1 0.904211
pom 25.6499 1 0.904211
pom 25.6994 1 0.904211
pom 25.7489 1 0.904211
pom 25.7985 1 0.904211
pom 25.848 1 0.904211
pom 25.8975 1 0.904211
pom 25.947 1 0.904211
pom 25.9965 1 0.904211
pom 26.0461 1 0.904211
pom 26.0956 1 0.904211
pom 26.1451 1 0.904211
pom 26.1946 1 0.904211
pom 26.2441 1 0.904211
pom 26.2936 1 0.904211
pom 26.3432 1 0.904211
pom 26.3927 1 0.904211
pom 26.4422 1 0.904211
pom 26.4917 1 0.904211
pom 26.5412 1 0.904211
pom 26.5907 1 0.904211
pom 26.6403 1 0.904211
pom 26.6898 1 0.904211
pom 26.7393 1 0.904211
pom 26.7888 1 0.904211
pom 26.8383 1 0.904211
pom 26.8878 1 0.904211
pom 26.9374 1 0.904211
pom 26.9869 1 0.904211
pom 27.0364 1 0.904211
pom 27.0859 1 0.904211
pom 27.1354 1 0.904211
pom 27.1849 1 0.904211
pom 27.2345 1 0.904211
pom 27.284 1 0.904211
pom 27.3335 1 0.904211
pom 27.383 1 0.904211
pom 27.4325 1 0.904211
pom 27.4821 1 0.904211
pom 27.5316 1 0.904211
pom 27.5811 1 0.904211
pom 27.6306 1 0.904211
pom 27.6801 1 0.904211
pom 27.7296 1 0.904211
pom 27.7792 1 0.904211
pom 27.8287 1 0.904211
pom 27.8782 1 0.904211
pom 27.9277 1 0.904211
pom 27.9772 1 0.904211
pom 28.0267 1 0.904211
pom 28.0763 1 0.904211
pom 28.1258 1 0.904211
pom 28.1753 1 0.904211
pom 28.2248 1 0.904211
pom 28.2743 1 0.904211
pom 28.3238 1 0.904211
pom 28.3734 1 0.904211
pom 28.4229 1 0.904211
pom 28.4724 1 0.904211
pom 28.5219 1 0.904211
pom 28.5714 1 0.904211
pom 28.6209 1 0.904211
pom 28.6705 1 0.904211
pom 28.72 1 0.904211
pom 28.7695 1 0.904211
pom 28.819 1 0.904211
pom 28.8685 1 0.904211
pom 28.918 1 0.904211
pom 28.9676 1 0.904211
pom 29.0171 1 0.904211
pom 29.0666 1 0.904202
pom 29.1161 1 0.904202
pom 29.1656 1 0.904202
pom 29.2152 1 0.904202
pom 29.2647 1 0.904202
pom 29.3142 1 0.904202
pom 29.3637 1 0.904202
pom 29.4132 1 0.904202
pom 29.4627 1 0.904202
pom 29.5123 1 0.904202
pom 29.5618 1 0.904202
pom 29.6113 1 0.904202
pom 29.6608 1 0.904202
pom 29.7103 1 0.904202
pom 29.7598 1 0.904202
pom 29.8094 1 0.904202
pom 29.8589 1 0.904202
pom 29.9084 1 0.904202
pom 29.9579 1 0.904202
pom 30.0074 1 0.904202
pom 30.0569 1 0.904202
pom 30.1065 1 0.904202
pom 30.156 1 0.904202
pom 30.2055 1 0.904202
pom 30.255 1 0.904202
pom 30.3045 1 0.904202
pom 30.354 1 0.904202
pom 30.4036 1 0.904202
pom 30.4531 1 0.904202
pom 30.5026 1 0.904202
pom 30.5521 1 0.904202
pom 30.6016 1 0.904202
pom 30.6512 1 0.904202
pom 30.7007 1 0.904202
pom 30.7502 1 0.904202
pom 30.7997 1 0.904202
pom 30.8492 1 0.904202
pom 30.8987 1 0.904202
pom 30.9483 1 0.904202
pom 30.9978 1 0.904202
pom 31.0473 1 0.904202
pom 31.0968 1 0.904202
pom 31.1463 1 0.904202
pom 31.1958 1 0.904202
pom 31.2454 1 0.904202
pom 31.2949 1 0.904202
pom 31.3444 1 0.904202
pom 31.3939 1 0.904202
pom 31.4434 1 0.904202
pom 31.4929 1 0.904202
pom 31.5425 1 0.904202
pom 31.592 1 0.904202
pom 31.6415 1 0.904202
pom 31.691 1 0.904202
pom 31.7405 1 0.904202
pom 31.79 1 0.904202
